R for Social Good - Maps
…
#calculate percent 
absences_2 <- dplyr::mutate(absences_2, percent = percent_absent_21_or_more_days *100) #Convert from decimal 

Summary Stats for plotting

absent_21 <- absences_2 %>%
  group_by(district_name) %>%
  summarise(mean = mean(percent, na.rm = TRUE))

absent_21$mean <- round(absent_21$mean, 2)

absent_21

# A tibble: 75 × 2
   district_name  mean
   <chr>         <dbl>
 1 ALACHUA       13.9 
 2 BAKER         21.0 
 3 BAY           12.7 
 4 BRADFORD      18.6 
 5 BREVARD        6.62
 6 BROWARD        8.71
 7 CALHOUN       20.9 
 8 CHARLOTTE      7.58
 9 CITRUS        11.0 
10 CLAY           9.78
# … with 65 more rows
…
Back to the educational set

School districts in Florida pretty much align with Florida Counties. However, there is nuance between the map data and the school district data.

This chunk renames the district_name to match the name in the map data and matches the case.

absent_21_c <- absent_21 %>%
  rename("subregion" = "district_name") #match name with map data in preperation of joining. 

absent_21_c$subregion <- tolower(absent_21_c$subregion) #make lowercase

absent_21_c

# A tibble: 75 × 2
   subregion  mean
   <chr>     <dbl>
 1 alachua   13.9 
 2 baker     21.0 
 3 bay       12.7 
 4 bradford  18.6 
 5 brevard    6.62
 6 broward    8.71
 7 calhoun   20.9 
 8 charlotte  7.58
 9 citrus    11.0 
10 clay       9.78
# … with 65 more rows
…
